%YAML 1.1
%TAG !u! tag:unity3d.com,2011:
--- !u!162 &1
EditorUserSettings:
  m_ObjectHideFlags: 0
  serializedVersion: 4
  m_ConfigSettings:
    RecentlyUsedSceneGuid-0:
      value: 500956545704590f550b557a12210d444515192c2a7f77692e7b1963b0b66568
      flags: 0
    RecentlyUsedSceneGuid-1:
      value: 5a5757560101590a5d0c0e24427b5d44434e4c7a7b7a23677f2b4565b7b5353a
      flags: 0
    RecentlyUsedSceneGuid-2:
      value: 0201025e5405505d095e087116700c4443164d2f7a7f27677b704960b2b6676d
      flags: 0
    RecentlyUsedSceneGuid-3:
      value: 5207015254010d5958565e264722074410154e72292b7e682e714b35b0b36c3b
      flags: 0
    RecentlyUsedSceneGuid-4:
      value: 5206575552055b0b5a5e587544215a44424e4a7f2a7c76312f2b1f31b6e46761
      flags: 0
    RecentlyUsedSceneGuid-5:
      value: 0107075350535b08080a597b12250a4444161a72282d7e657d2c1e62b1b16461
      flags: 0
    vcSharedLogLevel:
      value: 0d5e400f0650
      flags: 0
  m_VCAutomaticAdd: 1
  m_VCDebugCom: 0
  m_VCDebugCmd: 0
  m_VCDebugOut: 0
  m_SemanticMergeMode: 2
  m_DesiredImportWorkerCount: 4
  m_StandbyImportWorkerCount: 2
  m_IdleImportWorkerShutdownDelay: 60000
  m_VCShowFailedCheckout: 1
  m_VCOverwriteFailedCheckoutAssets: 1
  m_VCProjectOverlayIcons: 1
  m_VCHierarchyOverlayIcons: 1
  m_VCOtherOverlayIcons: 1
  m_VCAllowAsyncUpdate: 1
  m_ArtifactGarbageCollection: 1
